\relax 
\providecommand\hyper@newdestlabel[2]{}
\providecommand\HyperFirstAtBeginDocument{\AtBeginDocument}
\HyperFirstAtBeginDocument{\ifx\hyper@anchor\@undefined
\global\let\oldcontentsline\contentsline
\gdef\contentsline#1#2#3#4{\oldcontentsline{#1}{#2}{#3}}
\global\let\oldnewlabel\newlabel
\gdef\newlabel#1#2{\newlabelxx{#1}#2}
\gdef\newlabelxx#1#2#3#4#5#6{\oldnewlabel{#1}{{#2}{#3}}}
\AtEndDocument{\ifx\hyper@anchor\@undefined
\let\contentsline\oldcontentsline
\let\newlabel\oldnewlabel
\fi}
\fi}
\global\let\hyper@last\relax 
\gdef\HyperFirstAtBeginDocument#1{#1}
\providecommand*\HyPL@Entry[1]{}
\HyPL@Entry{0<</S/D>>}
\@writefile{toc}{\contentsline {section}{\numberline {1}Preface}{2}{section.1}}
\newlabel{sec:org5639a1b}{{1}{2}{Preface}{section.1}{}}
\@writefile{toc}{\contentsline {section}{\numberline {2}Disclaimer}{2}{section.2}}
\newlabel{sec:org08baaa3}{{2}{2}{Disclaimer}{section.2}{}}
\@writefile{toc}{\contentsline {section}{\numberline {3}Decisions taken}{2}{section.3}}
\newlabel{sec:org669009f}{{3}{2}{Decisions taken}{section.3}{}}
\@writefile{toc}{\contentsline {subsection}{\numberline {3.1}Main Protest (4th Jan)}{2}{subsection.3.1}}
\newlabel{sec:orge895534}{{3.1}{2}{Main Protest (4th Jan)}{subsection.3.1}{}}
\@writefile{toc}{\contentsline {subsubsection}{\numberline {3.1.1}Date}{2}{subsubsection.3.1.1}}
\newlabel{sec:org6407823}{{3.1.1}{2}{Date}{subsubsection.3.1.1}{}}
\@writefile{toc}{\contentsline {subsubsection}{\numberline {3.1.2}Location}{3}{subsubsection.3.1.2}}
\newlabel{sec:orge4eccd2}{{3.1.2}{3}{Location}{subsubsection.3.1.2}{}}
\@writefile{toc}{\contentsline {subsubsection}{\numberline {3.1.3}Time}{3}{subsubsection.3.1.3}}
\newlabel{sec:orge33278b}{{3.1.3}{3}{Time}{subsubsection.3.1.3}{}}
\@writefile{toc}{\contentsline {subsubsection}{\numberline {3.1.4}Police permission}{3}{subsubsection.3.1.4}}
\newlabel{sec:org2640948}{{3.1.4}{3}{Police permission}{subsubsection.3.1.4}{}}
\@writefile{toc}{\contentsline {subsubsection}{\numberline {3.1.5}Attendees}{3}{subsubsection.3.1.5}}
\newlabel{sec:org113e895}{{3.1.5}{3}{Attendees}{subsubsection.3.1.5}{}}
\@writefile{toc}{\contentsline {subsubsection}{\numberline {3.1.6}Roles}{4}{subsubsection.3.1.6}}
\newlabel{sec:orgdb98a00}{{3.1.6}{4}{Roles}{subsubsection.3.1.6}{}}
\@writefile{toc}{\contentsline {subsubsection}{\numberline {3.1.7}Further remarks}{4}{subsubsection.3.1.7}}
\newlabel{sec:org004b58c}{{3.1.7}{4}{Further remarks}{subsubsection.3.1.7}{}}
\newlabel{sec:orgc9ebbec}{{1}{4}{Further remarks}{Item.4}{}}
\newlabel{sec:org2011252}{{2}{4}{Further remarks}{Item.5}{}}
\newlabel{sec:orgdf54540}{{3}{4}{Further remarks}{Item.6}{}}
\@writefile{toc}{\contentsline {subsection}{\numberline {3.2}Regular Saturday protests}{4}{subsection.3.2}}
\newlabel{sec:org9f4ec8a}{{3.2}{4}{Regular Saturday protests}{subsection.3.2}{}}
\@writefile{toc}{\contentsline {subsection}{\numberline {3.3}Statement of solidarity}{4}{subsection.3.3}}
\newlabel{sec:orge63c4c3}{{3.3}{4}{Statement of solidarity}{subsection.3.3}{}}
\@writefile{toc}{\contentsline {subsubsection}{\numberline {3.3.1}Release}{5}{subsubsection.3.3.1}}
\newlabel{sec:orge6c864c}{{3.3.1}{5}{Release}{subsubsection.3.3.1}{}}
\@writefile{toc}{\contentsline {subsubsection}{\numberline {3.3.2}Signatories}{5}{subsubsection.3.3.2}}
\newlabel{sec:org22b7aec}{{3.3.2}{5}{Signatories}{subsubsection.3.3.2}{}}
\@writefile{toc}{\contentsline {subsection}{\numberline {3.4}Facebook group}{5}{subsection.3.4}}
\newlabel{sec:org8d18df5}{{3.4}{5}{Facebook group}{subsection.3.4}{}}
\@writefile{toc}{\contentsline {subsubsection}{\numberline {3.4.1}Membership}{5}{subsubsection.3.4.1}}
\newlabel{sec:orgd6f8827}{{3.4.1}{5}{Membership}{subsubsection.3.4.1}{}}
\@writefile{toc}{\contentsline {subsection}{\numberline {3.5}Structure of the IAP}{5}{subsection.3.5}}
\newlabel{sec:org58727c8}{{3.5}{5}{Structure of the IAP}{subsection.3.5}{}}
\@writefile{toc}{\contentsline {subsubsection}{\numberline {3.5.1}Subcommittees}{5}{subsubsection.3.5.1}}
\newlabel{sec:org4416c89}{{3.5.1}{5}{Subcommittees}{subsubsection.3.5.1}{}}
\@writefile{toc}{\contentsline {section}{\numberline {4}Closing Remarks}{7}{section.4}}
\newlabel{sec:orgc94034e}{{4}{7}{Closing Remarks}{section.4}{}}
