\relax 
\providecommand\hyper@newdestlabel[2]{}
\providecommand\HyperFirstAtBeginDocument{\AtBeginDocument}
\HyperFirstAtBeginDocument{\ifx\hyper@anchor\@undefined
\global\let\oldcontentsline\contentsline
\gdef\contentsline#1#2#3#4{\oldcontentsline{#1}{#2}{#3}}
\global\let\oldnewlabel\newlabel
\gdef\newlabel#1#2{\newlabelxx{#1}#2}
\gdef\newlabelxx#1#2#3#4#5#6{\oldnewlabel{#1}{{#2}{#3}}}
\AtEndDocument{\ifx\hyper@anchor\@undefined
\let\contentsline\oldcontentsline
\let\newlabel\oldnewlabel
\fi}
\fi}
\global\let\hyper@last\relax 
\gdef\HyperFirstAtBeginDocument#1{#1}
\providecommand*\HyPL@Entry[1]{}
\HyPL@Entry{0<</S/D>>}
\babel@aux{english}{}
\@writefile{toc}{\contentsline {section}{\numberline {1}Summary}{1}{section.1}}
\newlabel{sec:org616623d}{{1}{1}{Summary}{section.1}{}}
\@writefile{toc}{\contentsline {subsection}{\numberline {1.1}Attendees/Round of intro}{1}{subsection.1.1}}
\newlabel{sec:orgd239daf}{{1.1}{1}{Attendees/Round of intro}{subsection.1.1}{}}
\@writefile{toc}{\contentsline {subsection}{\numberline {1.2}26th Jan event}{2}{subsection.1.2}}
\newlabel{sec:org4e559c2}{{1.2}{2}{26th Jan event}{subsection.1.2}{}}
\@writefile{toc}{\contentsline {subsubsection}{\numberline {1.2.1}Location}{2}{subsubsection.1.2.1}}
\newlabel{sec:org8db4354}{{1.2.1}{2}{Location}{subsubsection.1.2.1}{}}
\@writefile{toc}{\contentsline {subsubsection}{\numberline {1.2.2}Time}{2}{subsubsection.1.2.2}}
\newlabel{sec:org6f07123}{{1.2.2}{2}{Time}{subsubsection.1.2.2}{}}
\@writefile{toc}{\contentsline {subsubsection}{\numberline {1.2.3}Format}{2}{subsubsection.1.2.3}}
\newlabel{sec:orgeda1fd5}{{1.2.3}{2}{Format}{subsubsection.1.2.3}{}}
\@writefile{toc}{\contentsline {subsubsection}{\numberline {1.2.4}Publicity}{3}{subsubsection.1.2.4}}
\newlabel{sec:orgbd86d3b}{{1.2.4}{3}{Publicity}{subsubsection.1.2.4}{}}
\@writefile{toc}{\contentsline {subsubsection}{\numberline {1.2.5}Organisation}{3}{subsubsection.1.2.5}}
\newlabel{sec:org0e3459f}{{1.2.5}{3}{Organisation}{subsubsection.1.2.5}{}}
\newlabel{sec:orgf29347f}{{1}{3}{Organisation}{Item.1}{}}
\newlabel{sec:org8ad50ea}{{2}{3}{Organisation}{Item.2}{}}
\newlabel{sec:org280aa25}{{3}{3}{Organisation}{Item.3}{}}
\newlabel{sec:orgd58c692}{{4}{3}{Organisation}{Item.4}{}}
\newlabel{sec:org42cb35a}{{5}{3}{Organisation}{Item.5}{}}
\@writefile{toc}{\contentsline {section}{\numberline {2}Further Notes}{4}{section.2}}
\newlabel{sec:orgde11333}{{2}{4}{Further Notes}{section.2}{}}
\@writefile{toc}{\contentsline {subsection}{\numberline {2.1}Future events}{4}{subsection.2.1}}
\newlabel{sec:orgf08e908}{{2.1}{4}{Future events}{subsection.2.1}{}}
\@writefile{toc}{\contentsline {subsection}{\numberline {2.2}26th Jan protests that are happening world-wide}{4}{subsection.2.2}}
\newlabel{sec:org310654a}{{2.2}{4}{26th Jan protests that are happening world-wide}{subsection.2.2}{}}
\@writefile{toc}{\contentsline {subsection}{\numberline {2.3}Conference 31st Jan at EHESS}{4}{subsection.2.3}}
\newlabel{sec:org744be37}{{2.3}{4}{Conference 31st Jan at EHESS}{subsection.2.3}{}}
