\babel@toc {english}{}
\contentsline {section}{\numberline {1}Summary}{1}{section.1}
\contentsline {subsection}{\numberline {1.1}Attendees/Round of intro}{1}{subsection.1.1}
\contentsline {subsection}{\numberline {1.2}26th Jan event}{2}{subsection.1.2}
\contentsline {subsubsection}{\numberline {1.2.1}Location}{2}{subsubsection.1.2.1}
\contentsline {subsubsection}{\numberline {1.2.2}Time}{2}{subsubsection.1.2.2}
\contentsline {subsubsection}{\numberline {1.2.3}Format}{2}{subsubsection.1.2.3}
\contentsline {subsubsection}{\numberline {1.2.4}Publicity}{3}{subsubsection.1.2.4}
\contentsline {subsubsection}{\numberline {1.2.5}Organisation}{3}{subsubsection.1.2.5}
\contentsline {section}{\numberline {2}Further Notes}{4}{section.2}
\contentsline {subsection}{\numberline {2.1}Future events}{4}{subsection.2.1}
\contentsline {subsection}{\numberline {2.2}26th Jan protests that are happening world-wide}{4}{subsection.2.2}
\contentsline {subsection}{\numberline {2.3}Conference 31st Jan at EHESS}{4}{subsection.2.3}
